{
  "migIndex": 1,
  "data": [
    {
      "path": "src/assets/fonts/Satoshi-Black.otf",
      "sha1": "d92baad4dab9ca55bc72f1a8a0a6de72829e709f"
    },
    {
      "path": "src/assets/fonts/Satoshi-Bold.otf",
      "sha1": "57a9e1c24984708865f7d0c31a03773912fb975f"
    },
    {
      "path": "src/assets/fonts/Satoshi-Medium.otf",
      "sha1": "704faccb5fff19f25c0b914d42d135ab75794a24"
    },
    {
      "path": "src/assets/fonts/Satoshi-Regular.otf",
      "sha1": "7dcb59994f2bee1a4ef1f6c079ba0e99b409878b"
    }
  ]
}
